Ceci est une phrase banale
La banalité n'est pas une banane
La sagesse arme fataleCeci est une phrase banale
                      La banalité n'est pas une banane
                      La sagesse arme fataleCeci est une phrase banale
                                            La banalité n'est pas une banane
                                            La sagesse arme fataleCeci est une phrase banale
                                                                  La banalité n'est pas une banane
                                                                  La sagesse arme fataleCeci est une phrase banale
                                                                                        La banalité n'est pas une banane
                                                                                        La sagesse arme fataleCeci est une phrase banale
                                                                                                              La banalité n'est pas une banane
                                                                                                              La sagesse arme fatale
