/home/takima/Bureau/box/resources/cdb-app/src/main/java/org/grorg/grordi/dao/UserDao.java
/home/takima/Bureau/box/resources/cdb-app/src/main/java/org/grorg/grordi/service/AbstractValid.java
/home/takima/Bureau/box/resources/cdb-app/src/main/java/org/grorg/grordi/dto/ComputerWithCompanyIdDtoFactory.java
/home/takima/Bureau/box/resources/cdb-app/src/main/java/org/grorg/grordi/dto/error/Errors.java
/home/takima/Bureau/box/resources/cdb-app/src/main/java/org/grorg/grordi/dto/ComputerWithCompanyNameDto.java
/home/takima/Bureau/box/resources/cdb-app/src/main/java/org/grorg/grordi/dto/ComputerWithCompanyIdDto.java
/home/takima/Bureau/box/resources/cdb-app/src/main/java/org/grorg/grordi/dto/UserDto.java
/home/takima/Bureau/box/resources/cdb-app/target/generated-sources/org/grorg/grordi/entity/QCompany.java
/home/takima/Bureau/box/resources/cdb-app/src/main/java/org/grorg/grordi/dto/error/Error.java
/home/takima/Bureau/box/resources/cdb-app/src/main/java/org/grorg/grordi/entity/Company.java
/home/takima/Bureau/box/resources/cdb-app/src/main/java/org/grorg/grordi/controller/CompanyController.java
/home/takima/Bureau/box/resources/cdb-app/target/generated-sources/org/grorg/grordi/entity/QComputer.java
/home/takima/Bureau/box/resources/cdb-app/src/main/java/org/grorg/grordi/dao/OperationDao.java
/home/takima/Bureau/box/resources/cdb-app/src/main/java/org/grorg/grordi/service/ValidForCreation.java
/home/takima/Bureau/box/resources/cdb-app/src/main/java/org/grorg/grordi/service/Valid.java
/home/takima/Bureau/box/resources/cdb-app/src/main/java/org/grorg/grordi/service/ComputerService.java
/home/takima/Bureau/box/resources/cdb-app/src/main/java/org/grorg/grordi/dao/ComputerDao.java
/home/takima/Bureau/box/resources/cdb-app/src/main/java/org/grorg/grordi/service/ValidationService.java
/home/takima/Bureau/box/resources/cdb-app/src/main/java/org/grorg/grordi/config/WebConfig.java
/home/takima/Bureau/box/resources/cdb-app/src/main/java/org/grorg/grordi/dto/ComputerWithCompanyNameDtoFactory.java
/home/takima/Bureau/box/resources/cdb-app/src/main/java/org/grorg/grordi/dto/ComputerWithCompanyIdDtoValidator.java
/home/takima/Bureau/box/resources/cdb-app/src/main/java/org/grorg/grordi/config/PersistenceConfig.java
/home/takima/Bureau/box/resources/cdb-app/target/generated-sources/org/grorg/grordi/entity/QOperation.java
/home/takima/Bureau/box/resources/cdb-app/src/main/java/org/grorg/grordi/GrordiApplication.java
/home/takima/Bureau/box/resources/cdb-app/src/main/java/org/grorg/grordi/service/util/FileUtil.java
/home/takima/Bureau/box/resources/cdb-app/src/main/java/org/grorg/grordi/service/UserService.java
/home/takima/Bureau/box/resources/cdb-app/src/main/java/org/grorg/grordi/entity/Operation.java
/home/takima/Bureau/box/resources/cdb-app/src/main/java/org/grorg/grordi/dto/Util.java
/home/takima/Bureau/box/resources/cdb-app/src/main/java/org/grorg/grordi/dao/CompanyDao.java
/home/takima/Bureau/box/resources/cdb-app/src/main/java/org/grorg/grordi/dto/Page.java
/home/takima/Bureau/box/resources/cdb-app/src/main/java/org/grorg/grordi/dto/SearchCriteria.java
/home/takima/Bureau/box/resources/cdb-app/target/generated-sources/org/grorg/grordi/entity/QUser.java
/home/takima/Bureau/box/resources/cdb-app/src/main/java/org/grorg/grordi/entity/LocalDateConverter.java
/home/takima/Bureau/box/resources/cdb-app/src/main/java/org/grorg/grordi/service/CompanyService.java
/home/takima/Bureau/box/resources/cdb-app/src/main/java/org/grorg/grordi/dto/ComputerDto.java
/home/takima/Bureau/box/resources/cdb-app/src/main/java/org/grorg/grordi/dao/Util.java
/home/takima/Bureau/box/resources/cdb-app/src/main/java/org/grorg/grordi/controller/Paths.java
/home/takima/Bureau/box/resources/cdb-app/src/main/java/org/grorg/grordi/controller/ComputerController.java
/home/takima/Bureau/box/resources/cdb-app/src/main/java/org/grorg/grordi/dto/error/ErrorImpl.java
/home/takima/Bureau/box/resources/cdb-app/src/main/java/org/grorg/grordi/entity/User.java
/home/takima/Bureau/box/resources/cdb-app/src/main/java/org/grorg/grordi/entity/Computer.java
/home/takima/Bureau/box/resources/cdb-app/src/main/java/org/grorg/grordi/service/ValidForUpdate.java
/home/takima/Bureau/box/resources/cdb-app/src/main/java/org/grorg/grordi/entity/Role.java
/home/takima/Bureau/box/resources/cdb-app/src/main/java/org/grorg/grordi/controller/RequestParser.java
